Date,Open,High,Low,Close,Volume
05-04-2019,176.880005,177,175.100006,175.720001,9158934
04-04-2019,176.020004,178,175.529999,176.020004,17773600
03-04-2019,174.5,177.960007,172.949997,173.539993,27590100
02-04-2019,170.139999,174.899994,169.550003,174.199997,23946500
01-04-2019,167.830002,168.899994,167.279999,168.699997,10381500
29-03-2019,166.389999,167.190002,164.809998,166.690002,13455500
28-03-2019,164.570007,166.720001,163.330002,165.550003,10689200
27-03-2019,167.850006,168.940002,164.789993,165.869995,10620300
26-03-2019,167.350006,169.449997,166.350006,167.679993,15437900
25-03-2019,163,166.539993,162,166.289993,12631200
22-03-2019,165.649994,167.419998,164.089996,164.339996,16389200
21-03-2019,164.889999,166.389999,163.75,166.080002,16223000
20-03-2019,161.5,166.119995,161.240005,165.440002,20211500
19-03-2019,161.479996,163.820007,160.820007,161.570007,25611500
18-03-2019,163.570007,163.899994,159.279999,160.470001,37524200
15-03-2019,167.160004,167.580002,162.509995,165.979996,37135400
14-03-2019,169.759995,171.149994,168.160004,170.169998,18037400
13-03-2019,172.320007,174.029999,172.119995,173.369995,11751100
12-03-2019,172.089996,173.800003,171.220001,171.919998,12155300
11-03-2019,171.600006,174.300003,171.580002,172.070007,18884000
08-03-2019,166.199997,169.619995,165.970001,169.600006,13184800
07-03-2019,171.5,171.740005,167.610001,169.130005,18306500
06-03-2019,172.899994,173.570007,171.270004,172.509995,21531700
05-03-2019,167.369995,171.880005,166.550003,171.259995,28187900
04-03-2019,163.899994,167.5,163.830002,167.369995,18894700
01-03-2019,162.600006,163.130005,161.690002,162.279999,11097800
28-02-2019,162.369995,163.5,160.860001,161.449997,11114200
27-02-2019,162.899994,163.929993,160.410004,162.809998,12697500
26-02-2019,164.339996,166.240005,163.800003,164.130005,13784100
25-02-2019,163.070007,166.070007,162.899994,164.619995,18737100
22-02-2019,160.580002,162.410004,160.309998,161.889999,15858500
21-02-2019,161.929993,162.240005,159.589996,160.039993,15607800
20-02-2019,162.25,163.720001,161.25,162.559998,11770700
19-02-2019,160.5,164.149994,160.330002,162.289993,14345400
15-02-2019,164.509995,164.699997,160.860001,162.5,15504400
14-02-2019,163.190002,164.869995,162.25,163.949997,12755200
13-02-2019,165.380005,166.220001,163.729996,164.070007,14205100
12-02-2019,166.860001,168.339996,164.5,165.039993,16292300
11-02-2019,167.899994,168.300003,165.080002,165.789993,12811200
08-02-2019,164.470001,167.369995,164.210007,167.330002,12561400
07-02-2019,168.199997,169.240005,165.25,166.380005,17517600
06-02-2019,171.199997,172.470001,169.270004,170.490005,13281200
05-02-2019,169.149994,171.979996,168.690002,171.160004,22557000
04-02-2019,165.699997,169.300003,163.619995,169.25,20036000
01-02-2019,165.839996,169.100006,165.660004,165.710007,30806500
31-01-2019,165.600006,171.679993,165,166.690002,77233600
30-01-2019,146.220001,150.949997,145.699997,150.419998,44613200
29-01-2019,148.089996,148.100006,143.429993,144.190002,17632100
28-01-2019,148.050003,148.960007,146.210007,147.470001,15508500
25-01-2019,147.479996,149.830002,146.539993,149.009995,22237200
24-01-2019,144.639999,146.440002,142.520004,145.830002,20955500
23-01-2019,148.279999,148.800003,143.059998,144.300003,20098400
22-01-2019,149.199997,151.529999,146.369995,147.570007,22378700
18-01-2019,149.75,152.429993,148.550003,150.039993,31029600
17-01-2019,146.949997,149,146.5,148.300003,15787900
16-01-2019,149,149.649994,147,147.539993,18025700
15-01-2019,146.009995,150.679993,145.990005,148.949997,24069000
14-01-2019,142,146.570007,141.270004,145.389999,20520300
11-01-2019,143.149994,145.360001,142.570007,143.800003,12908000
10-01-2019,143.080002,144.559998,140.839996,144.199997,16125000
09-01-2019,142.949997,144.699997,141.270004,144.229996,22205900
08-01-2019,139.889999,143.139999,139.539993,142.529999,26263800
07-01-2019,137.559998,138.869995,135.910004,138.050003,20089300
04-01-2019,134.009995,138,133.75,137.949997,29002100
03-01-2019,134.690002,137.169998,131.119995,131.740005,22717900
02-01-2019,128.990005,137.509995,128.559998,135.679993,28146200
31-12-2018,134.449997,134.639999,129.949997,131.089996,24625300
28-12-2018,135.339996,135.919998,132.199997,133.199997,22627600
27-12-2018,132.440002,134.990005,129.669998,134.520004,31202500
26-12-2018,126,134.240005,125.889999,134.179993,39723400
24-12-2018,123.099998,129.740005,123.019997,124.059998,22066000
21-12-2018,133.389999,134.899994,123.419998,124.949997,56901500
20-12-2018,130.699997,135.570007,130,133.399994,40297900
19-12-2018,141.210007,144.910004,132.5,133.240005,57404900
18-12-2018,141.080002,145.929993,139.830002,143.660004,24709100
17-12-2018,143.080002,144.919998,138.419998,140.190002,24334000
14-12-2018,143.339996,146.009995,142.509995,144.059998,21785800
13-12-2018,145.570007,145.850006,143.190002,145.009995,18148600
12-12-2018,143.080002,147.190002,142.509995,144.5,23696900
11-12-2018,143.880005,143.880005,141.100006,142.080002,20300300
10-12-2018,139.600006,143.050003,139.009995,141.850006,26422200
07-12-2018,139.25,140.869995,136.660004,137.419998,21195500
06-12-2018,133.820007,139.699997,133.669998,139.630005,28218100
04-12-2018,140.729996,143.389999,137.160004,137.929993,30307400
03-12-2018,143,143.679993,140.759995,141.089996,24819200
30-11-2018,138.259995,140.970001,137.360001,140.610001,25732600
29-11-2018,135.919998,139.990005,135.660004,138.679993,24238700
28-11-2018,136.279999,136.789993,131.850006,136.759995,29847500
27-11-2018,135.75,136.610001,133.710007,135,20750300
26-11-2018,133,137,132.779999,136.380005,24263600
23-11-2018,133.649994,134.5,131.259995,131.729996,11886100
21-11-2018,134.399994,137.190002,134.130005,134.820007,25469700
20-11-2018,127.029999,134.160004,126.849998,132.429993,41939500
19-11-2018,137.610001,137.75,131.210007,131.550003,44362700
16-11-2018,141.070007,141.770004,137.770004,139.529999,37250600
15-11-2018,142.330002,144.839996,140.830002,143.850006,30320300
14-11-2018,143.699997,145.580002,141.550003,144.220001,22068400
13-11-2018,142,144.880005,141.619995,142.160004,15141700
12-11-2018,144.479996,145.039993,140.490005,141.550003,18542100
09-11-2018,146.75,147.759995,144.070007,144.960007,17326900
08-11-2018,150.490005,150.940002,146.740005,147.869995,24145800
07-11-2018,151.570007,153.009995,149.830002,151.529999,21877400
06-11-2018,149.309998,150.970001,148,149.940002,16667100
05-11-2018,150.100006,150.190002,147.440002,148.679993,15971200
02-11-2018,151.800003,154.130005,148.960007,150.350006,24708700
01-11-2018,151.520004,152.75,149.350006,151.75,25640800
31-10-2018,155,156.399994,148.960007,151.789993,60101300
30-10-2018,139.940002,146.639999,139.740005,146.220001,50528300
29-10-2018,148.5,148.830002,139.029999,142.089996,31336800
26-10-2018,145.820007,149,143.800003,145.369995,31303300
25-10-2018,147.729996,152.210007,147,150.949997,22105700
24-10-2018,154.279999,154.649994,145.600006,146.039993,27744600
23-10-2018,151.220001,154.770004,150.850006,154.389999,19095000
22-10-2018,154.759995,157.339996,154.460007,154.779999,15424700
19-10-2018,155.860001,157.350006,153.550003,154.050003,19761300
18-10-2018,158.509995,158.660004,153.279999,154.919998,21675100
17-10-2018,159.559998,160.490005,157.949997,159.419998,17592000
16-10-2018,155.399994,159.460007,155.009995,158.779999,19180100
15-10-2018,153.320007,155.570007,152.550003,153.520004,15433500
12-10-2018,156.729996,156.889999,151.300003,153.740005,25293500
11-10-2018,150.130005,154.809998,149.160004,153.350006,35338900
10-10-2018,156.820007,157.690002,151.309998,151.380005,30610000
09-10-2018,157.690002,160.589996,157.419998,157.899994,18844400
08-10-2018,155.539993,158.339996,154.389999,157.25,24046000
05-10-2018,159.210007,160.899994,156.199997,157.330002,25744000
04-10-2018,161.460007,161.460007,157.350006,158.850006,25739600
03-10-2018,160,163.660004,159.529999,162.429993,23109500
02-10-2018,161.580002,162.279999,158.669998,159.330002,36031000
01-10-2018,163.029999,165.880005,161.259995,162.440002,26407700
28-09-2018,168.330002,168.789993,162.559998,164.460007,34265600
27-09-2018,167.550003,171.770004,167.210007,168.839996,27266900
26-09-2018,164.300003,169.300003,164.210007,166.949997,25252200
25-09-2018,161.990005,165.589996,161.149994,164.910004,27622800
24-09-2018,161.029999,165.699997,160.880005,165.410004,19222800
21-09-2018,166.639999,167.25,162.809998,162.929993,45994800
20-09-2018,164.5,166.449997,164.470001,166.020004,18824200
19-09-2018,160.080002,163.440002,159.479996,163.059998,19629000
18-09-2018,159.389999,161.759995,158.869995,160.300003,22465200
17-09-2018,161.919998,162.059998,159.770004,160.580002,21005300
14-09-2018,161.720001,162.839996,160.339996,162.320007,21770400
13-09-2018,162,163.320007,160.860001,161.360001,25453800
12-09-2018,163.25,164.490005,161.800003,162,24078100
11-09-2018,163.940002,167.190002,163.720001,165.940002,20457100
10-09-2018,163.509995,165.009995,162.160004,164.179993,20197700
07-09-2018,160.309998,164.630005,160.160004,163.039993,24300600
06-09-2018,166.979996,166.979996,160,162.529999,41514800
05-09-2018,169.490005,171.130005,166.669998,167.179993,31226700
04-09-2018,173.5,173.889999,168.800003,171.160004,29809000
31-08-2018,177.149994,177.619995,174.979996,175.729996,18065200
30-08-2018,175.899994,179.789993,175.699997,177.639999,24216500
29-08-2018,176.300003,176.789993,174.75,175.899994,18494100
28-08-2018,178.100006,178.240005,175.830002,176.259995,15910700
27-08-2018,175.990005,178.669998,175.789993,177.460007,17921900
24-08-2018,173.699997,174.820007,172.919998,174.649994,14631600
23-08-2018,173.089996,175.550003,172.830002,172.899994,18053600
22-08-2018,172.210007,174.240005,172.130005,173.639999,16894100
21-08-2018,172.809998,174.169998,171.389999,172.619995,19578500
20-08-2018,174.039993,174.570007,170.910004,172.5,21518000
17-08-2018,174.5,176.220001,172.039993,173.800003,24893200
16-08-2018,180.419998,180.5,174.009995,174.699997,31351800
15-08-2018,179.339996,180.869995,174.779999,179.529999,33020200
14-08-2018,180.710007,181.990005,178.619995,181.110001,19102000
13-08-2018,180.100006,182.610001,178.899994,180.050003,17369400
10-08-2018,182.039993,182.100006,179.419998,180.259995,21500400
09-08-2018,185.850006,186.570007,182.479996,183.089996,19696700
08-08-2018,184.75,186.850006,183.759995,185.179993,22205200
07-08-2018,186.5,188.300003,183.720001,183.809998,33398600
06-08-2018,178.970001,185.789993,178.380005,185.690002,49716200
03-08-2018,177.690002,178.850006,176.149994,177.779999,24763400
02-08-2018,170.679993,176.789993,170.270004,176.369995,32400000
01-08-2018,173.929993,175.080002,170.899994,171.649994,34042100
31-07-2018,170.669998,174.240005,170,172.580002,40356500
30-07-2018,175.300003,175.300003,166.559998,171.059998,65280800
27-07-2018,179.869995,179.929993,173,174.889999,60073700
26-07-2018,174.889999,180.130005,173.75,176.259995,169803700
25-07-2018,215.720001,218.619995,214.270004,217.5,58954200
24-07-2018,215.110001,216.199997,212.600006,214.669998,28468700
23-07-2018,210.580002,211.619995,208.800003,210.910004,16732000
20-07-2018,208.850006,211.5,208.5,209.940002,16163900
19-07-2018,208.770004,209.990005,207.759995,208.089996,11350400
18-07-2018,209.820007,210.990005,208.440002,209.360001,15334900
17-07-2018,204.899994,210.460007,204.839996,209.990005,15349900
16-07-2018,207.5,208.720001,206.839996,207.229996,11078200
13-07-2018,207.809998,208.429993,206.449997,207.320007,11486800
12-07-2018,203.429993,207.080002,203.190002,206.919998,15454700
11-07-2018,202.220001,204.5,201.75,202.539993,12927400
10-07-2018,204.5,204.910004,202.259995,203.539993,13190100
09-07-2018,204.929993,205.800003,202.119995,204.740005,18149400
06-07-2018,198.449997,203.639999,197.699997,203.229996,19740100
05-07-2018,194.740005,198.649994,194.029999,198.449997,19684200
03-07-2018,194.550003,195.399994,192.520004,192.729996,13489500
02-07-2018,193.369995,197.449997,192.220001,197.360001,13961600
29-06-2018,197.320007,197.600006,193.960007,194.320007,15811600
28-06-2018,195.179993,197.339996,193.259995,196.229996,18172400
27-06-2018,199.179993,200.75,195.800003,195.839996,18734400
26-06-2018,197.600006,199.100006,196.229996,199,17897600
25-06-2018,200,200,193.110001,196.350006,25275100
22-06-2018,201.160004,202.240005,199.309998,201.740005,17420200
21-06-2018,202.759995,203.389999,200.089996,201.5,19045700
20-06-2018,199.100006,203.550003,198.809998,202,28230900
19-06-2018,196.240005,197.960007,193.789993,197.490005,19994000
18-06-2018,194.800003,199.580002,194.130005,198.309998,16826000
15-06-2018,195.789993,197.070007,194.639999,195.850006,21860900
14-06-2018,193.100006,197.279999,192.910004,196.809998,19120900
13-06-2018,192.740005,194.5,191.910004,192.410004,15853800
12-06-2018,192.169998,193.279999,191.559998,192.399994,11562700
11-06-2018,188.809998,192.600006,188.800003,191.539993,12928900
08-06-2018,187.529999,189.479996,186.429993,189.100006,12677100
07-06-2018,190.75,190.970001,186.770004,188.179993,21503200
06-06-2018,191.029999,192.529999,189.110001,191.339996,22558900
05-06-2018,194.300003,195,192.619995,192.940002,15544300
04-06-2018,191.839996,193.979996,191.470001,193.279999,18939800
01-06-2018,193.070007,194.550003,192.070007,193.990005,17307200
31-05-2018,187.869995,192.720001,187.479996,191.779999,30782600
30-05-2018,186.539993,188,185.25,187.669998,13736900
29-05-2018,184.339996,186.809998,183.710007,185.740005,16398900
25-05-2018,186.020004,186.330002,184.449997,184.919998,10965100
24-05-2018,185.880005,186.800003,185.029999,185.929993,12354700
23-05-2018,182.5,186.910004,182.179993,186.899994,16628100
22-05-2018,184.929993,185.419998,183.429993,183.800003,12731400
21-05-2018,183.770004,185.300003,183.130005,184.490005,13532900
18-05-2018,183.490005,184.190002,182.610001,182.679993,13130500
17-05-2018,182.679993,184.059998,182.220001,183.759995,14840700
16-05-2018,183.699997,184.320007,182.660004,183.199997,16975500
15-05-2018,184.880005,185.289993,183.199997,184.320007,15429400
14-05-2018,187.710007,187.860001,186.199997,186.639999,15646700
11-05-2018,184.850006,188.320007,184.179993,186.990005,21207800
10-05-2018,183.149994,186.130005,182.5,185.529999,21071400
09-05-2018,179.669998,183.009995,178.779999,182.660004,23282800
08-05-2018,178.25,179.039993,177.110001,178.919998,15577200
07-05-2018,177.350006,179.5,177.169998,177.970001,18697200
04-05-2018,173.080002,176.979996,173.059998,176.610001,17677800
03-05-2018,175.130005,176.119995,172.119995,174.020004,24026100
02-05-2018,174.25,178.080002,174.199997,176.070007,30424500
01-05-2018,172,174.020004,170.229996,173.860001,26025900
30-04-2018,173.789993,175.720001,171.710007,172,20750500
27-04-2018,176.809998,177.100006,172.600006,173.589996,29804700
26-04-2018,173.220001,176.270004,170.800003,174.160004,77556900
25-04-2018,160.139999,161.059998,156.190002,159.690002,41083600
24-04-2018,165.429993,166.100006,158.190002,159.690002,35079900
23-04-2018,167.270004,168.449997,165.089996,165.839996,23088100
20-04-2018,167.789993,168.429993,165.809998,166.279999,19119400
19-04-2018,166.199997,168.330002,165.199997,168.100006,22235000
18-04-2018,166.880005,168.119995,165.770004,166.360001,20969600
17-04-2018,165.830002,169,165.660004,168.660004,21716700
16-04-2018,165.720001,165.779999,163.389999,164.830002,18119400
13-04-2018,164.580002,165.699997,163.770004,164.520004,19990600
12-04-2018,166.979996,167.449997,163.100006,163.869995,38263000
11-04-2018,165.360001,168.649994,163.25,166.320007,56144600
10-04-2018,157.929993,165.979996,157.009995,165.039993,57889300
09-04-2018,157.820007,160.529999,156.039993,157.929993,34915200
06-04-2018,157.729996,161.419998,156.809998,157.199997,41644800
05-04-2018,161.559998,161.570007,156.649994,159.339996,41449600
04-04-2018,152.029999,155.559998,150.509995,155.100006,49885600
03-04-2018,156.550003,157.389999,150.809998,156.110001,42543900
02-04-2018,157.809998,159.199997,154.110001,155.389999,36796000
29-03-2018,155.149994,161.419998,154.139999,159.789993,59434300
28-03-2018,151.649994,155.880005,150.800003,153.029999,60029200
27-03-2018,156.309998,162.850006,150.75,152.220001,79117000
26-03-2018,160.820007,161.100006,149.020004,160.059998,126116600
23-03-2018,165.440002,166.600006,159.020004,159.389999,53609700
22-03-2018,166.130005,170.270004,163.720001,164.889999,73743000
21-03-2018,164.800003,173.399994,163.300003,169.389999,105920200
20-03-2018,167.470001,170.199997,161.949997,168.149994,129851800
19-03-2018,177.009995,177.169998,170.059998,172.559998,88140100
16-03-2018,184.490005,185.330002,183.410004,185.089996,24403400
15-03-2018,183.240005,184,182.190002,183.860001,15614300
14-03-2018,182.600006,184.25,181.850006,184.190002,16821700
13-03-2018,185.610001,185.990005,181.110001,181.880005,18067500
12-03-2018,185.229996,186.100006,184.220001,184.759995,15301200
09-03-2018,183.910004,185.509995,183.210007,185.229996,18526300
08-03-2018,183.559998,184.399994,181.449997,182.339996,17225900
07-03-2018,178.740005,183.820007,178.070007,183.710007,19097300
06-03-2018,181.779999,182.380005,179.110001,179.779999,15086800
05-03-2018,176.199997,181.149994,175.889999,180.399994,16189300
02-03-2018,173.289993,177.110001,172.990005,176.619995,20025900
01-03-2018,179.009995,180.119995,174.410004,175.940002,23201600
28-02-2018,182.300003,182.880005,178.139999,178.320007,18783000
27-02-2018,184.449997,184.699997,181.460007,181.460007,15849800
26-02-2018,184.580002,185.660004,183.220001,184.929993,17599700
23-02-2018,179.899994,183.389999,179.509995,183.289993,19007300
22-02-2018,178.699997,180.210007,177.410004,178.990005,18464200
21-02-2018,176.710007,181.270004,176.399994,177.910004,23200800
20-02-2018,175.770004,177.949997,175.110001,176.009995,21204900
16-02-2018,178.990005,179.880005,176.300003,177.360001,20645300
15-02-2018,180.5,180.5,176.839996,179.960007,20922100
14-02-2018,173.449997,179.809998,173.210007,179.520004,28929700
13-02-2018,175.619995,175.970001,173.100006,173.149994,21809400
12-02-2018,177.059998,177.550003,171.839996,176.410004,32092100
09-02-2018,174.759995,176.899994,167.179993,176.110001,39887600
08-02-2018,181.009995,181.839996,171.479996,171.580002,38478300
07-02-2018,184.149994,185.080002,179.949997,180.179993,27601900
06-02-2018,178.570007,185.770004,177.740005,185.309998,37758500
05-02-2018,186.929993,190.610001,180.610001,181.259995,33128200
02-02-2018,192.039993,194.210007,189.979996,190.279999,26677500
01-02-2018,188.220001,195.320007,187.889999,193.089996,54211300
31-01-2018,188.369995,189.830002,185.220001,186.889999,43275100
30-01-2018,187.619995,188.179993,181.839996,187.119995,20858600
29-01-2018,188.75,188.839996,185.630005,185.979996,20453200
26-01-2018,187.75,190,186.809998,190,17759200
25-01-2018,187.949997,188.619995,186.600006,187.479996,17377700
24-01-2018,189.889999,190.660004,186.520004,186.550003,24334500
23-01-2018,186.050003,189.550003,185.550003,189.350006,25678800
22-01-2018,180.800003,185.389999,180.410004,185.369995,21059500
19-01-2018,180.850006,182.369995,180.169998,181.289993,26826500
18-01-2018,178.130005,180.979996,177.080002,179.800003,23304900
17-01-2018,179.259995,179.320007,175.800003,177.600006,27992400
16-01-2018,181.5,181.75,178.039993,178.389999,36183800
12-01-2018,178.059998,181.479996,177.399994,179.369995,77306900
11-01-2018,188.399994,188.399994,187.380005,187.770004,9588600
10-01-2018,186.940002,187.889999,185.630005,187.839996,10529900
09-01-2018,188.699997,188.800003,187.100006,187.869995,12393100
08-01-2018,187.199997,188.899994,186.330002,188.279999,17994700
05-01-2018,185.589996,186.899994,184.929993,186.850006,13574500
04-01-2018,184.899994,186.210007,184.100006,184.330002,13880900
03-01-2018,181.880005,184.779999,181.330002,184.669998,16886600
02-01-2018,177.679993,181.580002,177.550003,181.419998,18151900
29-12-2017,178,178.850006,176.460007,176.460007,10178700
28-12-2017,177.949997,178.940002,177.679993,177.919998,12220800
27-12-2017,176.550003,178.440002,176.259995,177.619995,9496100
26-12-2017,176.630005,177,174.669998,175.990005,8897300
22-12-2017,177.139999,177.529999,176.229996,177.199997,8487000
21-12-2017,177.940002,178.679993,177.050003,177.449997,11600700
20-12-2017,179.809998,179.809998,177.360001,177.889999,11860500
19-12-2017,179.949997,180.080002,178.220001,179.509995,14920600
18-12-2017,181.009995,181.300003,179.75,180.820007,17265400
15-12-2017,179.020004,180.490005,178.360001,180.179993,28463100
14-12-2017,178.289993,180.360001,177.679993,178.389999,13591000
13-12-2017,177.300003,179.160004,177.25,178.300003,14615700
12-12-2017,178.600006,179.179993,176.600006,176.960007,16854100
11-12-2017,179.300003,180.220001,178.800003,179.039993,13168600
08-12-2017,181.529999,182.279999,178.740005,179,19883800
07-12-2017,175.800003,180.389999,175.800003,180.139999,20404500
06-12-2017,172.5,176.770004,171.899994,176.059998,20255800
05-12-2017,170.449997,175.380005,169.009995,172.830002,20184900
04-12-2017,176.289993,176.570007,170.789993,171.470001,24459400
01-12-2017,176.029999,177.479996,172.339996,175.100006,20182500
30-11-2017,176.850006,178.279999,175.199997,177.179993,25307600
29-11-2017,181.889999,181.970001,174,175.130005,41933500
28-11-2017,183.509995,184.25,182.089996,182.419998,14379700
27-11-2017,182.559998,183.729996,181.990005,183.029999,12344500
24-11-2017,180.399994,183.149994,180.289993,182.779999,9426300
22-11-2017,181.300003,181.729996,180.440002,180.869995,10376300
21-11-2017,179.149994,181.889999,178.990005,181.860001,14504000
20-11-2017,178.869995,179.5,178.100006,178.740005,10052400
17-11-2017,179.300003,179.979996,178.899994,179,13018000
16-11-2017,178.759995,179.830002,178.5,179.589996,15607600
15-11-2017,176.660004,178.570007,176.399994,177.949997,10253700
14-11-2017,178.130005,178.970001,177.179993,178.070007,9585900
13-11-2017,177.5,179.039993,177.300003,178.770004,9523400
10-11-2017,178.350006,179.100006,177.960007,178.460007,11070200
09-11-2017,178.309998,179.399994,177.089996,179.300003,12610300
08-11-2017,179.789993,180.350006,179.110001,179.559998,10494100
07-11-2017,180.5,180.75,178.960007,180.25,12928200
06-11-2017,178.559998,180.449997,178.309998,180.169998,13312700
03-11-2017,179.289993,179.860001,176.710007,178.919998,17822100
02-11-2017,180.630005,181.940002,177.339996,178.919998,35529900
01-11-2017,182.360001,182.899994,180.570007,182.660004,40918300
31-10-2017,180.570007,180.800003,178.940002,180.059998,20174200
30-10-2017,179.259995,180.690002,177.610001,179.869995,24353200
27-10-2017,174.149994,178.210007,173.899994,177.880005,30285300
26-10-2017,171.380005,172.289993,170.389999,170.630005,11833100
25-10-2017,171.899994,172.25,168.889999,170.600006,15868200
24-10-2017,172.300003,173.240005,171.5,171.800003,12267900
23-10-2017,175.199997,175.339996,171.25,171.270004,13852700
20-10-2017,175.5,175.880005,174.630005,174.979996,12602200
19-10-2017,174.929993,176.029999,172.630005,174.559998,14048400
18-10-2017,176.649994,176.740005,175.75,176.029999,12752400
17-10-2017,174.710007,176.130005,174.360001,176.110001,15990100
16-10-2017,174.490005,175,174.059998,174.520004,11498800
13-10-2017,173.449997,174.649994,173.199997,173.740005,13658300
12-10-2017,172.610001,173.850006,172.289993,172.550003,10351000
11-10-2017,171.949997,172.779999,171.399994,172.740005,11283700
10-10-2017,173,173.199997,170.800003,171.589996,11341100
09-10-2017,172.699997,174.880005,172,172.5,14570400
06-10-2017,170.25,172.369995,169.75,172.229996,13124500
05-10-2017,169.179993,171.309998,168.600006,171.240005,14580600
04-10-2017,169.830002,170.669998,168.289993,168.419998,12127900
03-10-2017,169.300003,170.729996,169.199997,169.960007,8190300
02-10-2017,171.389999,171.869995,168.75,169.470001,13392300
29-09-2017,168.830002,171.660004,168.809998,170.869995,15340400
28-09-2017,167.940002,169.070007,167.160004,168.729996,12178700
27-09-2017,165.899994,168.339996,165.570007,167.679993,19242500
26-09-2017,164.5,165.5,162.779999,164.210007,23363300
25-09-2017,169.240005,169.300003,161.559998,162.869995,41251600
22-09-2017,170.210007,171.729996,169.220001,170.539993,12097100
21-09-2017,171.690002,172.270004,170.009995,171.110001,11161400
20-09-2017,172.5,173.050003,170.699997,172.169998,12264100
19-09-2017,170.619995,172.559998,170.360001,172.520004,13168600
18-09-2017,171.990005,172.070007,169.339996,170.009995,12954000
15-09-2017,170.880005,172.339996,170.259995,171.639999,15660500
14-09-2017,172.259995,172.279999,170.5,170.960007,15615700
13-09-2017,173.009995,173.169998,172.059998,173.050003,9119300
12-09-2017,173.759995,174,171.75,172.960007,11186300
11-09-2017,172.399994,173.889999,172.199997,173.509995,12372000
08-09-2017,173.089996,173.490005,170.800003,170.949997,10998500
07-09-2017,171.940002,173.309998,170.270004,173.210007,18049500
06-09-2017,170.910004,172.479996,169.570007,172.089996,13906300
05-09-2017,171.270004,172.389999,169.550003,170.720001,13210900
01-09-2017,172.399994,172.919998,171.309998,172.020004,11677600
31-08-2017,170.399994,172.149994,170.059998,171.970001,17226500
30-08-2017,168.169998,170.179993,167.630005,169.919998,11138300
29-08-2017,165.25,168.429993,165,168.050003,11121000
28-08-2017,166.910004,167.699997,166.330002,167.240005,8553700
25-08-2017,167.860001,168.380005,166.179993,166.320007,12614500
24-08-2017,168.880005,169.289993,166.410004,167.740005,14030400
23-08-2017,168.839996,169.360001,168.199997,168.710007,9856500
22-08-2017,168.279999,169.869995,167.149994,169.639999,11391000
21-08-2017,167.160004,168,165.820007,167.779999,11907500
18-08-2017,166.839996,168.669998,166.210007,167.410004,15093600
17-08-2017,169.339996,169.860001,166.850006,166.910004,17216000
16-08-2017,171.25,171.380005,169.240005,170,15779900
15-08-2017,171.490005,171.5,170.009995,171,8729200
14-08-2017,170.089996,171.080002,169.289993,170.75,12954200
11-08-2017,167.949997,168.820007,166.850006,168.080002,13791200
10-08-2017,170.059998,170.589996,166.850006,167.399994,20832700
09-08-2017,169.979996,171.449997,169.559998,171.179993,10815000
08-08-2017,171.880005,173.050003,170.619995,171.229996,14393500
07-08-2017,169.949997,172.059998,169.660004,171.979996,12787800
04-08-2017,168.970001,170.059998,168.690002,169.619995,10777700
03-08-2017,169.300003,169.699997,168.25,168.589996,10793800
02-08-2017,170.300003,170.550003,166.910004,169.300003,17433800
01-08-2017,169.820007,170.470001,169.050003,169.860001,14385000
31-07-2017,172,172.720001,168.550003,169.25,25478900
28-07-2017,169.070007,173.429993,169.050003,172.449997,24557600
27-07-2017,174.699997,175.490005,167.5,170.440002,68910700
26-07-2017,166.009995,166.009995,164.100006,165.610001,35236900
25-07-2017,165.009995,165.539993,163.860001,165.279999,15383200
24-07-2017,164.639999,166.169998,164.309998,166,17367000
21-07-2017,164.160004,165.050003,163.75,164.429993,14744000
20-07-2017,164.800003,165,162.809998,164.529999,18523100
19-07-2017,163.589996,165.699997,163.169998,164.139999,26273600
18-07-2017,159.660004,163.729996,159.419998,162.860001,23722900
17-07-2017,160.25,160.779999,158.809998,159.729996,12858800
14-07-2017,160.130005,160.320007,159.330002,159.970001,16371200
13-07-2017,158.740005,159.779999,158.419998,159.259995,13929200
12-07-2017,156.490005,159.160004,156.199997,158.899994,22739400
11-07-2017,153.369995,155.419998,152.910004,155.270004,13667700
10-07-2017,151.690002,153.979996,151.509995,153.5,13378700
07-07-2017,149.25,151.990005,149.190002,151.440002,13615900
06-07-2017,149.029999,150.039993,148,148.820007,14951800
05-07-2017,149,150.850006,148.130005,150.339996,14334300
03-07-2017,151.720001,152.149994,147.800003,148.429993,13862700
30-06-2017,151.899994,151.919998,150.059998,150.979996,17666000
29-06-2017,152.279999,152.5,148.919998,151.039993,23973500
28-06-2017,150.919998,153.470001,149.860001,153.240005,16719100
27-06-2017,152.839996,153.309998,150.389999,150.580002,19360800
26-06-2017,156.25,156.5,153.199997,153.589996,18049700
23-06-2017,152.720001,155.199997,152.649994,155.070007,18027000
22-06-2017,153.009995,154.550003,152.910004,153.399994,13005500
21-06-2017,152.360001,154.080002,151.880005,153.910004,15039800
20-06-2017,152.880005,153.839996,152.210007,152.25,14743900
19-06-2017,151.710007,153.570007,151.710007,152.869995,19026500
16-06-2017,149.589996,150.830002,148.600006,150.639999,22882400
15-06-2017,147.669998,150.039993,146.369995,149.800003,18994200
14-06-2017,151.259995,152.399994,149.050003,150.25,20808800
13-06-2017,150.149994,151.179993,148.899994,150.679993,20483400
12-06-2017,148.169998,149.199997,144.559998,148.440002,33170200
09-06-2017,154.770004,155.589996,146.610001,149.600006,35577700
08-06-2017,154.080002,154.729996,153.100006,154.710007,17799400
07-06-2017,153.270004,153.75,152.339996,153.119995,12066700
06-06-2017,153.410004,154.520004,152.479996,152.809998,13457100
05-06-2017,153.639999,154.710007,153.410004,153.630005,12520400
02-06-2017,151.850006,153.630005,151.300003,153.610001,16854400
01-06-2017,151.75,152.289993,150.300003,151.529999,14530600
31-05-2017,152.699997,153.350006,151.089996,151.460007,18023900
30-05-2017,151.970001,152.899994,151.639999,152.380005,13226000
26-05-2017,152.229996,152.25,151.149994,152.130005,14996200
25-05-2017,150.300003,152.589996,149.949997,151.960007,19891400
24-05-2017,148.509995,150.229996,148.419998,150.039993,17862400
23-05-2017,148.520004,148.809998,147.25,148.070007,12817800
22-05-2017,148.080002,148.589996,147.690002,148.240005,12586700
19-05-2017,148.449997,149.389999,147.960007,148.059998,16187900
18-05-2017,144.720001,148.149994,144.509995,147.660004,23031600
17-05-2017,148,148.669998,144.419998,144.850006,28300100
16-05-2017,150.110001,150.210007,149.029999,149.779999,14550800
15-05-2017,150.169998,151.479996,149.770004,150.190002,15064700
12-05-2017,150.399994,150.460007,149.630005,150.330002,9598200
11-05-2017,150.309998,150.649994,149.410004,150.039993,11841900
10-05-2017,150.229996,150.520004,148.860001,150.289993,12080700
09-05-2017,151.490005,152.589996,150.210007,150.479996,17453900
08-05-2017,150.710007,151.080002,149.740005,151.059998,15827500
05-05-2017,151.449997,151.630005,149.789993,150.240005,17148500
04-05-2017,150.169998,151.520004,148.720001,150.850006,36225500
03-05-2017,153.600006,153.600006,151.339996,151.800003,29782500
02-05-2017,153.339996,153.440002,151.660004,152.779999,21870400
01-05-2017,151.740005,152.570007,151.419998,152.460007,25218300
28-04-2017,149.5,151.529999,149.070007,150.25,30652200
27-04-2017,146.669998,147.75,146.139999,147.699997,11275100
26-04-2017,147.089996,147.589996,146.089996,146.559998,12395000
25-04-2017,145.789993,147.149994,145.789993,146.490005,17767500
24-04-2017,144.960007,145.669998,144.339996,145.470001,14407200
21-04-2017,143.899994,144.169998,142.270004,143.679993,12382000
20-04-2017,142.949997,144.25,142.690002,143.800003,15968200
19-04-2017,141.350006,143.039993,141.270004,142.270004,15563900
18-04-2017,141.270004,141.910004,140.610001,140.960007,14807500
17-04-2017,139.759995,141.550003,139.75,141.419998,11519700
13-04-2017,139.619995,140.580002,139.330002,139.389999,10965600
12-04-2017,139.720001,140.399994,139.440002,139.580002,11612500
11-04-2017,140.800003,141.029999,138.809998,139.919998,16638100
10-04-2017,141,141.429993,140.630005,141.039993,9039400
07-04-2017,141.199997,141.550003,140.240005,140.779999,11818300
06-04-2017,142.110001,142.220001,140.910004,141.169998,15103400
05-04-2017,142.259995,143.440002,141.289993,141.850006,17158100
04-04-2017,141.860001,142.089996,141.270004,141.729996,12948600
03-04-2017,141.929993,142.470001,140.820007,142.279999,13564000
31-03-2017,142.309998,142.630005,141.889999,142.050003,11478300
30-03-2017,142.399994,142.949997,141.850006,142.410004,12404000
29-03-2017,141.990005,142.860001,141.429993,142.649994,16527600
28-03-2017,140.360001,141.949997,140.009995,141.759995,14679400
27-03-2017,139.050003,140.649994,138.770004,140.320007,12800500
24-03-2017,140.080002,141.020004,139.759995,140.339996,16664700
23-03-2017,139.479996,140.389999,139.089996,139.529999,13022800
22-03-2017,137.929993,139.789993,137.600006,139.589996,17055400
21-03-2017,141.149994,142.309998,138.399994,138.509995,29894800
20-03-2017,139.710007,140.190002,139.25,139.940002,12099500
17-03-2017,140.339996,140.339996,139.699997,139.839996,20592800
16-03-2017,140.199997,140.25,139.729996,139.990005,13612900
15-03-2017,139.289993,140.100006,138.490005,139.720001,19344800
14-03-2017,139.460007,139.460007,138.520004,139.320007,12944000
13-03-2017,138.710007,139.679993,138.669998,139.600006,10955500
10-03-2017,138.910004,139.490005,138.220001,138.789993,16314100
09-03-2017,137.720001,138.570007,137.399994,138.240005,15535300
08-03-2017,137.149994,137.990005,137.050003,137.720001,10184500
07-03-2017,137.029999,138.369995,136.990005,137.300003,13527100
06-03-2017,136.880005,137.830002,136.509995,137.419998,12748200
03-03-2017,136.630005,137.330002,136.080002,137.169998,11160600
02-03-2017,137.089996,137.820007,136.309998,136.759995,12294800
01-03-2017,136.470001,137.479996,136.300003,137.419998,16257000
28-02-2017,136.789993,136.809998,134.75,135.539993,16112100
27-02-2017,135.259995,137.179993,135.020004,136.410004,14306700
24-02-2017,134.160004,135.619995,134.160004,135.440002,12625700
23-02-2017,135.889999,136.119995,134.330002,135.360001,18422500
22-02-2017,133.600006,136.789993,133.460007,136.119995,27360100
21-02-2017,133.5,133.910004,132.899994,133.720001,14759100
17-02-2017,133.5,134.089996,133.169998,133.529999,12276500
16-02-2017,133.070007,133.869995,133.020004,133.839996,12831100
15-02-2017,133.449997,133.699997,132.660004,133.440002,13226500
14-02-2017,134.100006,134.229996,132.550003,133.850006,14364900
13-02-2017,134.699997,134.699997,133.699997,134.050003,13526200
10-02-2017,134.100006,134.940002,133.679993,134.190002,15061900
09-02-2017,134.490005,134.5,133.309998,134.139999,16470600
08-02-2017,132.600006,134.440002,132.440002,134.199997,22390600
07-02-2017,132.240005,133,131.660004,131.839996,14596400
06-02-2017,130.979996,132.059998,130.300003,132.059998,17058500
03-02-2017,131.240005,132.850006,130.759995,130.979996,24804900
02-02-2017,133.220001,135.490005,130.399994,130.839996,54366400
01-02-2017,132.25,133.490005,130.679993,133.229996,50139800
31-01-2017,130.169998,130.660004,129.520004,130.320007,19790500
30-01-2017,131.580002,131.580002,129.600006,130.979996,18956100
27-01-2017,132.679993,132.949997,131.080002,132.179993,19539500
26-01-2017,131.630005,133.139999,131.440002,132.779999,20020100
25-01-2017,130,131.740005,129.770004,131.479996,18731300
24-01-2017,129.380005,129.899994,128.380005,129.369995,15162700
23-01-2017,127.309998,129.25,126.949997,128.929993,16593600
20-01-2017,128.100006,128.479996,126.779999,127.040001,19097200
19-01-2017,128.229996,128.350006,127.449997,127.550003,12195500
18-01-2017,128.410004,128.429993,126.839996,127.919998,13145900
17-01-2017,128.039993,128.339996,127.400002,127.870003,15294500
13-01-2017,127.489998,129.270004,127.370003,128.339996,24884300
12-01-2017,125.610001,126.730003,124.800003,126.620003,18653900
11-01-2017,124.349998,126.120003,124.059998,126.089996,18356500
10-01-2017,124.82,125.5,124.279999,124.349998,17324600
09-01-2017,123.550003,125.43,123.040001,124.900002,22880400
06-01-2017,120.980003,123.879997,120.029999,123.410004,28545300
05-01-2017,118.860001,120.949997,118.32,120.669998,19492200
04-01-2017,117.550003,119.660004,117.290001,118.690002,19630900
03-01-2017,116.029999,117.839996,115.510002,116.860001,20663900
30-12-2016,116.599998,116.830002,114.769997,115.050003,18684100
29-12-2016,117,117.529999,116.059998,116.349998,9934900
28-12-2016,118.190002,118.25,116.650002,116.919998,12087400
27-12-2016,116.959999,118.68,116.860001,118.010002,12051500
23-12-2016,117,117.559998,116.300003,117.269997,10890000
22-12-2016,118.860001,118.989998,116.93,117.400002,16258600
21-12-2016,118.919998,119.199997,118.480003,119.040001,10767600
20-12-2016,119.5,119.769997,118.800003,119.089996,13684400
19-12-2016,119.849998,120.360001,118.510002,119.239998,15918100
16-12-2016,120.900002,121.5,119.269997,119.870003,25324300
15-12-2016,120.080002,122.5,119.629997,120.57,20139600
14-12-2016,120,121.690002,118.849998,120.209999,25913100
13-12-2016,117.860001,121.519997,117.610001,120.309998,29768000
12-12-2016,119.220001,119.239998,117.650002,117.769997,17805500
09-12-2016,119.220001,119.940002,118.949997,119.68,17464700
08-12-2016,117.980003,119.5,117.639999,118.910004,22442800
07-12-2016,117,117.949997,116.57,117.949997,21913700
06-12-2016,117.690002,117.800003,116.330002,117.309998,19131200
05-12-2016,115.949997,117.57,115.07,117.43,20201500
02-12-2016,115.110001,116.480003,114.300003,115.400002,25070400
01-12-2016,118.379997,118.449997,114,115.099998,43277000
30-11-2016,120.32,121.790001,117.949997,118.419998,30188900
29-11-2016,120.57,122.099998,120.400002,120.870003,18891000
28-11-2016,120.120003,121.690002,119.82,120.410004,18101300
25-11-2016,121.010002,121.139999,120.07,120.379997,8658600
23-11-2016,121.230003,121.309998,119.940002,120.839996,15672100
22-11-2016,122.400002,122.980003,120.900002,121.470001,26089200
21-11-2016,118.199997,121.949997,117.800003,121.769997,35415400
18-11-2016,118.389999,119.129997,116.839996,117.019997,22879300
17-11-2016,116.809998,117.790001,116.010002,117.790001,18597800
16-11-2016,114.480003,117.879997,114.209999,116.339996,32397900
15-11-2016,116.730003,118.489998,115.830002,117.199997,34681400
14-11-2016,119.129997,119.129997,113.550003,115.080002,51377000
11-11-2016,119.529999,120.699997,118.150002,119.019997,32804000
10-11-2016,123.93,124.18,115.269997,120.800003,67846700
09-11-2016,121.5,123.809998,120.510002,123.18,31916000
08-11-2016,122.029999,124.610001,121.540001,124.220001,19367800
07-11-2016,122.830002,123.209999,121.349998,122.150002,23008900
04-11-2016,119.589996,121.93,119.25,120.75,30545500
03-11-2016,122,123.279999,119.5,120,63766300
02-11-2016,130.229996,130.229996,126.279999,127.169998,39640900
01-11-2016,131.410004,131.940002,128.649994,129.5,22077800
31-10-2016,132.009995,132.119995,130.880005,130.990005,15669000
28-10-2016,130.5,132.970001,129.929993,131.289993,24545500
27-10-2016,131.740005,131.800003,129.270004,129.690002,16741400
26-10-2016,131.639999,132.259995,130.940002,131.039993,13084700
25-10-2016,133.5,133.5,132.220001,132.289993,13336800
24-10-2016,132.720001,133.410004,132.149994,133.279999,17470200
21-10-2016,129.779999,132.130005,129.699997,132.070007,19088800
20-10-2016,130.070007,130.660004,129.5,130,13167500
19-10-2016,128.740005,130.470001,128.600006,130.110001,16752300
18-10-2016,128.679993,129.389999,128.009995,128.570007,13504000
17-10-2016,128.199997,128.470001,127.32,127.540001,11351700
14-10-2016,128.490005,128.949997,127.580002,127.879997,13345300
13-10-2016,128.210007,128.25,126.75,127.82,17139300
12-10-2016,129.009995,129.660004,128.460007,129.050003,11073000
11-10-2016,130.229996,130.639999,128.229996,128.880005,17537900
10-10-2016,129.679993,130.699997,129.199997,130.240005,15138700
07-10-2016,129.039993,129.25,128.330002,128.990005,12804400
06-10-2016,128.429993,129.059998,128.080002,128.740005,11682700
05-10-2016,128.25,128.800003,127.830002,128.470001,12386800
04-10-2016,129.169998,129.279999,127.550003,128.190002,14307500
03-10-2016,128.380005,129.089996,127.800003,128.770004,13156900
30-09-2016,128.029999,128.589996,127.449997,128.270004,18402900
29-09-2016,129.179993,129.289993,127.550003,128.089996,14532200
28-09-2016,129.210007,129.470001,128.399994,129.229996,12047600
27-09-2016,127.610001,129.009995,127.43,128.690002,15637100
26-09-2016,127.370003,128.160004,126.800003,127.309998,15064900
23-09-2016,127.559998,128.600006,127.300003,127.959999,28326300
22-09-2016,130.5,130.729996,129.559998,130.080002,15538300
21-09-2016,129.130005,130.009995,128.389999,129.940002,14068300
20-09-2016,128.649994,129.169998,128.029999,128.639999,11083800
19-09-2016,129.910004,129.940002,128.259995,128.649994,14958800
16-09-2016,128.199997,129.179993,128.199997,129.070007,24119200
15-09-2016,127.980003,129.100006,127.669998,128.350006,15077200
14-09-2016,126.889999,128.800003,126.889999,127.769997,15691100
13-09-2016,128.029999,128.350006,126.660004,127.209999,18016200
12-09-2016,125.959999,128.759995,125.75,128.690002,21252800
09-09-2016,129.710007,129.949997,127.099998,127.099998,27100700
08-09-2016,130.919998,131.080002,129.809998,130.270004,15676600
07-09-2016,130.039993,131.979996,129.949997,131.050003,27990800
06-09-2016,126.669998,129.940002,126.470001,129.729996,26278400
02-09-2016,126.849998,126.860001,126,126.510002,12118800
01-09-2016,126.379997,126.629997,125.599998,126.169998,13536100
31-08-2016,125.599998,126.220001,125.099998,126.120003,14200600
30-08-2016,126.599998,126.599998,125.150002,125.839996,17804300
29-08-2016,124.349998,126.730003,124.349998,126.540001,15925900
26-08-2016,124.050003,125.190002,123.910004,124.959999,17504800
25-08-2016,123.120003,124.370003,123.099998,123.889999,10730800
24-08-2016,124.470001,124.690002,123.089996,123.480003,12243700
23-08-2016,124.510002,125.089996,124.25,124.370003,13309500
22-08-2016,123.330002,124.830002,123.110001,124.150002,14386400
19-08-2016,123.599998,124.160004,123.279999,123.559998,11688300
18-08-2016,124.010002,124.260002,123.639999,123.910004,12400800
17-08-2016,123.660004,124.379997,122.849998,124.370003,13794200
16-08-2016,123.5,123.919998,122.779999,123.300003,14222400
15-08-2016,124.910004,124.919998,123.699997,123.900002,19295100
12-08-2016,124.699997,125,124.18,124.879997,12159000
11-08-2016,125.199997,125.379997,124.75,124.900002,11729500
10-08-2016,125.07,125.480003,124.540001,124.879997,10670100
09-08-2016,125.339996,126.089996,124.529999,125.059998,19621000
08-08-2016,125.25,125.449997,124.550003,125.260002,15233900
05-08-2016,124.980003,125.839996,124.620003,125.150002,20184000
04-08-2016,122.940002,124.790001,122.510002,124.360001,21066000
03-08-2016,123.089996,123.919998,122.309998,122.510002,18525300
02-08-2016,124.059998,124.800003,122.07,123.089996,23968400
01-08-2016,123.849998,124.580002,122.860001,124.309998,25006900
29-07-2016,124.650002,125.839996,123.709999,123.940002,35058800
28-07-2016,127.519997,128.330002,123.629997,125,78955800
27-07-2016,122.419998,125,121.510002,123.339996,52654200
26-07-2016,122,122.07,120.75,121.220001,17612000
25-07-2016,121.389999,121.849998,117.779999,121.629997,18487400
22-07-2016,119.900002,121.010002,119.309998,121,18422400
21-07-2016,121.919998,122.099998,120.25,120.610001,17801700
20-07-2016,121.25,122.199997,120.559998,121.919998,20046500
19-07-2016,118.989998,120.849998,118.660004,120.610001,21541300
18-07-2016,117.32,119.610001,116.889999,119.370003,20868400
15-07-2016,117.739998,118.279999,116.580002,116.860001,16646000
14-07-2016,117.5,117.639999,116.699997,117.290001,14579700
13-07-2016,118.389999,118.400002,116.68,116.779999,16207700
12-07-2016,118.629997,118.720001,117.57,117.93,15217700
11-07-2016,117.709999,118.699997,117.5,117.870003,17711600
08-07-2016,116.43,117.5,115.849998,117.239998,18142600
07-07-2016,116.629997,116.970001,115.360001,115.849998,16630200
06-07-2016,113.360001,116.790001,112.970001,116.699997,24337600
05-07-2016,113.940002,114.199997,112.970001,114.199997,14207000
01-07-2016,114.199997,115.129997,113.809998,114.190002,14980000
30-06-2016,114.669998,115.18,113.669998,114.279999,23192700
29-06-2016,113.370003,114.25,113.040001,114.160004,20968300
28-06-2016,110.629997,112.75,110.550003,112.699997,26813800
27-06-2016,111.57,111.57,108.230003,108.970001,36130400
24-06-2016,111.010002,113.68,111,112.080002,40643100
23-06-2016,114.370003,115.089996,113.540001,115.080002,16176900
22-06-2016,114.650002,114.739998,113.610001,113.910004,14846300
21-06-2016,114.120003,115.209999,113.970001,114.379997,19166300
20-06-2016,113.769997,114.720001,112.75,113.370003,20785400
17-06-2016,114.419998,114.43,112.559998,113.019997,24644300
16-06-2016,113.870003,114.5,112.940002,114.389999,19236300
15-06-2016,115.300003,115.440002,114.07,114.599998,19819400
14-06-2016,114.07,114.949997,113.580002,114.940002,17618500
13-06-2016,115,115.480003,113.309998,113.949997,31718200
10-06-2016,117.540001,118.110001,116.260002,116.620003,18510800
09-06-2016,118.129997,118.68,117.709999,118.559998,13859200
08-06-2016,117.760002,118.599998,117.269997,118.389999,14505600
07-06-2016,119.239998,119.300003,117.669998,117.760002,17103000
06-06-2016,118.620003,119.43,118.360001,118.790001,12744700
03-06-2016,118.980003,118.980003,117.860001,118.470001,14135100
02-06-2016,118.690002,119.440002,118.220001,118.93,13228300
01-06-2016,118.5,119.080002,117.82,118.779999,15029500
31-05-2016,119.459999,120.099998,118.120003,118.809998,23547600
27-05-2016,119.559998,119.849998,119.010002,119.379997,13464400
26-05-2016,118.239998,119.760002,117.919998,119.470001,18481300
25-05-2016,118.129997,118.669998,117.379997,117.889999,20019800
24-05-2016,116.239998,117.730003,116.120003,117.699997,20183600
23-05-2016,117.419998,117.599998,115.940002,115.970001,20441000
20-05-2016,116.959999,117.989998,116.949997,117.349998,18944800
19-05-2016,117.050003,117.489998,115.879997,116.809998,20544100
18-05-2016,116.800003,118.269997,116.730003,117.650002,21642300
17-05-2016,118.82,119.010002,117.199997,117.349998,21328600
16-05-2016,119.379997,119.610001,117.349998,118.669998,31247800
13-05-2016,120.379997,120.639999,119.68,119.809998,18124300
12-05-2016,119.980003,120.839996,118.900002,120.279999,22035500
11-05-2016,120.410004,121.080002,119.419998,119.519997,22038400
10-05-2016,119.620003,120.5,119,120.5,23220000
09-05-2016,119.540001,120.279999,118.900002,119.239998,21138100
06-05-2016,117.160004,119.639999,117.110001,119.489998,26216200
05-05-2016,118.040001,118.980003,117.25,117.809998,22056700
04-05-2016,116.610001,118.300003,116.57,118.059998,23448400
03-05-2016,117.519997,118.160004,117.019997,117.43,24117500
02-05-2016,117.830002,118.730003,116.57,118.57,28095200
29-04-2016,116.82,117.839996,115.839996,117.580002,37140600
28-04-2016,119.580002,120.790001,116.230003,116.730003,87110100
27-04-2016,107.940002,108.940002,106.309998,108.889999,52213100
26-04-2016,110.489998,110.5,108.150002,108.760002,22521500
25-04-2016,109.870003,110.669998,109.07,110.099998,21017900
22-04-2016,111.209999,111.75,109.010002,110.559998,38458200
21-04-2016,112.550003,114.040001,112.309998,113.440002,20875200
20-04-2016,112.43,113.269997,111.559998,112.419998,21027900
19-04-2016,111.099998,112.449997,109.160004,112.290001,30210500
18-04-2016,109.739998,110.809998,109.199997,110.449997,21092700
15-04-2016,110.790001,110.970001,109.199997,109.639999,20922800
14-04-2016,110.620003,112.040001,110.260002,110.839996,28473300
13-04-2016,112.230003,112.650002,106.519997,110.510002,88227400
12-04-2016,109.339996,111.160004,108.989998,110.610001,26248100
11-04-2016,110.699997,110.910004,108.769997,108.989998,39762300
08-04-2016,114.25,114.330002,109.900002,110.629997,48497800
07-04-2016,113.790001,114.889999,113.07,113.639999,20714500
06-04-2016,112.470001,113.809998,112.419998,113.709999,20814600
05-04-2016,112.110001,113.32,111.900002,112.220001,22962400
04-04-2016,114.07,114.550003,111.610001,112.550003,48487900
01-04-2016,113.75,116.169998,113.349998,116.059998,24760500
31-03-2016,114.699997,115.010002,113.769997,114.099998,21207500
30-03-2016,116.730003,116.989998,114.360001,114.699997,33235200
29-03-2016,113.830002,116.32,113.639999,116.139999,29825300
28-03-2016,113.32,114.589996,112.949997,113.690002,21351800
24-03-2016,112.129997,113.089996,111.68,113.050003,17839100
23-03-2016,112.010002,113.190002,112,112.540001,18562000
22-03-2016,111.360001,112.879997,111.169998,112.25,19001100
21-03-2016,111.660004,112.370003,111.029999,111.849998,18448000
18-03-2016,111.559998,112.419998,110.269997,111.449997,36256900
17-03-2016,112.150002,112.690002,110.730003,111.019997,24241200
16-03-2016,110.489998,112.5,110.099998,112.18,24744800
15-03-2016,109.110001,110.830002,108.839996,110.669998,17618500
14-03-2016,109.279999,110.330002,108.769997,109.889999,17249400
11-03-2016,108.480003,109.419998,107.919998,109.410004,20697600
10-03-2016,107.910004,108.660004,105.769997,107.32,24854300
09-03-2016,106.699997,107.510002,105.489998,107.510002,20493300
08-03-2016,104.779999,107.370003,104.400002,105.93,25617000
07-03-2016,108.07,108.07,104.720001,105.730003,31436400
04-03-2016,110.050003,110.050003,107.93,108.389999,24938900
03-03-2016,110.25,110.300003,108.540001,109.580002,21353100
02-03-2016,109.68,110.550003,108.769997,109.949997,25670200
01-03-2016,107.830002,109.82,107.599998,109.82,26817300
29-02-2016,107.599998,108.910004,106.75,106.919998,32779000
26-02-2016,108.699997,109.449997,107.160004,107.919998,26686200
25-02-2016,107.110001,108.07,105.610001,108.07,29906300
24-02-2016,104.209999,106.949997,102.739998,106.879997,34412400
23-02-2016,106.849998,107.470001,105.120003,105.459999,25319300
22-02-2016,105.489998,108.25,105.339996,107.160004,35709700
19-02-2016,102.550003,105.019997,102.059998,104.57,32404500
18-02-2016,105.800003,106,103.029999,103.470001,29593500
17-02-2016,102.019997,105.720001,100.400002,105.199997,44073400
16-02-2016,103.800003,103.93,100.239998,101.610001,45687200
12-02-2016,103.739998,104.239998,101.089996,102.010002,36176800
11-02-2016,99.599998,105.110001,98.879997,101.910004,43670600
10-02-2016,101.550003,103.25,100.239998,101,45179400
09-02-2016,97.139999,102.400002,96.82,99.540001,62709000
08-02-2016,100.410004,102.68,97.459999,99.75,71229700
05-02-2016,109.510002,109.580002,103.18,104.07,76894700
04-02-2016,111.800003,111.940002,109.25,110.489998,38890200
03-02-2016,115.269997,115.339996,109.75,112.690002,56919300
02-02-2016,114.800003,117.589996,113.199997,114.610001,59778600
01-02-2016,112.269997,115.720001,112.010002,115.089996,46132700
29-01-2016,108.989998,112.839996,108.839996,112.209999,62739500
28-01-2016,107.199997,110.339996,104.809998,109.110001,107475300
27-01-2016,97.790001,97.849998,94.230003,94.449997,58699400
26-01-2016,97.760002,97.879997,95.660004,97.339996,26877100
25-01-2016,98.720001,99.480003,96.93,97.010002,32482000
22-01-2016,96.410004,98.07,95.489998,97.940002,30495400
21-01-2016,94.910004,95.989998,92.620003,94.160004,30518900
20-01-2016,92.830002,95,89.370003,94.349998,59051400
19-01-2016,96.529999,97.419998,93.919998,95.260002,30998300
15-01-2016,93.980003,96.379997,93.540001,94.970001,45935600
14-01-2016,95.849998,98.870003,92.449997,98.370003,48658600
13-01-2016,100.580002,100.580002,95.209999,95.440002,33410600
12-01-2016,99,99.959999,97.550003,99.370003,28395400
11-01-2016,97.910004,98.599998,95.389999,97.510002,29932400
08-01-2016,99.879997,100.5,97.029999,97.330002,35402300
07-01-2016,100.5,101.43,97.300003,97.919998,45172900
06-01-2016,101.129997,103.769997,100.900002,102.970001,25096200
05-01-2016,102.889999,103.709999,101.669998,102.730003,23258200
04-01-2016,101.949997,102.239998,99.75,102.220001,37912400
31-12-2015,106,106.169998,104.620003,104.660004,18298700
30-12-2015,107,107.25,106.059998,106.220001,13115000
29-12-2015,106.419998,107.739998,106.25,107.260002,17179900
28-12-2015,105.019997,105.980003,104.529999,105.93,13069700
24-12-2015,104.739998,105.32,104.5,105.019997,6501800
23-12-2015,105.889999,106.110001,103.860001,104.629997,19599700
22-12-2015,105.220001,105.660004,104.809998,105.510002,14597100
21-12-2015,104.910004,105.150002,103.599998,104.769997,16138800
18-12-2015,106.080002,106.589996,103.970001,104.040001,35994200
17-12-2015,107.489998,107.75,106.129997,106.220001,21675700
16-12-2015,105.370003,107.089996,104.190002,106.790001,22680500
15-12-2015,105.300003,105.800003,104.279999,104.550003,21764300
14-12-2015,102.290001,104.739998,101.459999,104.660004,24648100
11-12-2015,104.150002,104.339996,101.910004,102.120003,26427700
10-12-2015,105.050003,106.400002,104.410004,105.419998,17414500
09-12-2015,106.18,106.440002,103.550003,104.599998,23517300
08-12-2015,104,106.910004,103.949997,106.489998,20401800
07-12-2015,106.480003,106.830002,104.660004,105.610001,15474900
04-12-2015,104.809998,107.730003,104.110001,106.18,21224700
03-12-2015,106.269997,106.849998,103.349998,104.379997,23236500
02-12-2015,107,107.919998,105.790001,106.07,24429100
01-12-2015,104.830002,107.150002,104.5,107.120003,22781900
30-11-2015,105.839996,106.099998,103.75,104.239998,20383200
27-11-2015,105.779999,105.959999,104.860001,105.449997,5913100
25-11-2015,106.330002,106.599998,105.099998,105.410004,15150800
24-11-2015,106,106.489998,104.389999,105.739998,23577300
23-11-2015,107.190002,107.470001,106.080002,106.949997,19897200
20-11-2015,106.839996,107.870003,106.620003,107.32,22129600
19-11-2015,107.360001,107.730003,105.949997,106.260002,25520600
18-11-2015,105.800003,107.879997,105.389999,107.769997,23836500
17-11-2015,104.620003,106.199997,104.139999,105.129997,26807200
16-11-2015,103.32,104.169998,100.470001,104.040001,49309200
13-11-2015,107.709999,108.25,103.830002,103.949997,30278400
12-11-2015,108.480003,109.389999,108,108.019997,20924700
11-11-2015,108.269997,109.870003,107.110001,109.010002,25057100
10-11-2015,105.959999,108.150002,105.239998,107.910004,25031700
09-11-2015,107,108.25,105.860001,106.489998,26383500
06-11-2015,108.040001,108.739998,105.910004,107.099998,35084300
05-11-2015,108.800003,110.650002,107.949997,108.760002,63232900
04-11-2015,103.190002,104.139999,102.480003,103.940002,43469300
03-11-2015,103.220001,103.650002,102.400002,102.580002,21242300
02-11-2015,101.720001,103.470001,101.18,103.309998,24003900
30-10-2015,104.510002,104.720001,101.650002,101.970001,33487100
29-10-2015,103.959999,105.120003,103.519997,104.879997,20316700
28-10-2015,103.900002,104.480003,102.919998,104.199997,24081500
27-10-2015,102.940002,104.099998,102.400002,103.699997,23795500
26-10-2015,102.199997,103.809998,101.550003,103.769997,25961200
23-10-2015,101.910004,102.849998,100.160004,102.190002,42809700
22-10-2015,97.790001,99.730003,97.550003,99.669998,26392100
21-10-2015,97.370003,98.18,96.470001,97.110001,21917800
20-10-2015,98.730003,99.589996,96.559998,97,30700500
19-10-2015,97.18,98.57,96.919998,98.470001,23729900
16-10-2015,96.18,97.589996,95.349998,97.540001,25412900
15-10-2015,94.989998,96.300003,94.900002,95.959999,27557500
14-10-2015,94.080002,95.199997,93.610001,94.07,19253400
13-10-2015,93.660004,95.370003,93.550003,94.120003,19480300
12-10-2015,93.32,94.599998,92.669998,94.260002,18449600
09-10-2015,92.900002,93.739998,92.239998,93.239998,20012900
08-10-2015,91.889999,93.220001,90.470001,92.470001,27290500
07-10-2015,93.110001,93.660004,91.370003,92.400002,24129300
06-10-2015,94.080002,94.169998,92.339996,92.800003,22172800
05-10-2015,92.940002,94.269997,92.660004,94.010002,27292500
02-10-2015,88.900002,92.199997,88.370003,92.07,37881700
01-10-2015,90.050003,90.949997,88.360001,90.949997,29283700
30-09-2015,88.440002,90.019997,88.010002,89.900002,36169100
29-09-2015,89.099998,90.059998,85.720001,86.669998,42281800
28-09-2015,92.080002,92.290001,88.18,89.209999,41199900
25-09-2015,95.790001,95.849998,92.059998,92.769997,28961600
24-09-2015,93.059998,94.769997,92.239998,94.410004,29106000
23-09-2015,93.400002,94.32,92.800003,93.970001,21701400
22-09-2015,93.769997,94.68,91.919998,92.959999,36888900
21-09-2015,94.620003,96.489998,94.519997,95.550003,28790000
18-09-2015,93.199997,95.190002,93.050003,94.400002,62300000
17-09-2015,93.370003,95.510002,92.900002,94.339996,27841800
16-09-2015,92.900002,93.599998,92.629997,93.449997,16321200
15-09-2015,92.370003,93.25,91.790001,92.900002,18859400
14-09-2015,92.309998,92.620003,91.599998,92.309998,20127900
11-09-2015,91.68,92.080002,91.129997,92.050003,21185000
10-09-2015,90.07,92.059998,89.629997,91.980003,26437400
09-09-2015,90.779999,91.980003,90.169998,90.440002,32551100
08-09-2015,89.690002,90.239998,88.830002,89.529999,27012500
04-09-2015,87.199997,88.389999,86.699997,88.260002,27328700
03-09-2015,89.760002,89.82,87.730003,88.150002,27048200
02-09-2015,88.809998,89.889999,87.629997,89.889999,27190500
01-09-2015,86.849998,89.389999,86.5,87.230003,36097400
31-08-2015,90.599998,91.050003,88.889999,89.43,32850700
28-08-2015,89.879997,91.480003,89.790001,91.010002,33215900
27-08-2015,89.099998,90.059998,87.190002,89.730003,42431400
26-08-2015,85.949997,87.459999,83.260002,87.190002,45124300
25-08-2015,86.949997,87.669998,83,83,52021200
24-08-2015,77.029999,82.089996,72,82.089996,83710700
21-08-2015,87.519997,89.18,85.610001,86.059998,62778700
20-08-2015,93.540001,94.769997,90.459999,90.559998,44598200
19-08-2015,94.629997,96.099998,94.160004,95.309998,23156500
18-08-2015,94.080002,95.849998,94.040001,95.169998,22278800
17-08-2015,94.419998,94.459999,93.389999,93.93,18313500
14-08-2015,93.540001,94.720001,93.209999,94.419998,15929700
13-08-2015,94.050003,94.730003,93.349998,93.43,17451800
12-08-2015,92.699997,94.440002,91.190002,94.190002,27050500
11-08-2015,93.730003,94.760002,92.900002,93.620003,22491000
10-08-2015,95.68,95.900002,93.629997,94.150002,21624200
07-08-2015,95.379997,95.400002,93.610001,94.300003,23199100
06-08-2015,97.18,98.739998,94.419998,95.120003,42271300
05-08-2015,95.25,97.089996,95.18,96.440002,29813200
04-08-2015,93.790001,94.730003,93.330002,94.059998,20136000
03-08-2015,93.529999,95.080002,92.800003,94.139999,29343100
31-07-2015,94.949997,96.330002,93.949997,94.010002,46509000
30-07-2015,94.910004,95.809998,91.800003,95.209999,86211300
29-07-2015,96.32,97.279999,94.739998,96.989998,64648300
28-07-2015,94.839996,95.559998,93.309998,95.290001,35236000
27-07-2015,96.580002,96.610001,93.830002,94.169998,38585400
24-07-2015,97.349998,97.760002,95.879997,96.949997,33444900
23-07-2015,96.959999,97.449997,94.809998,95.440002,29418800
22-07-2015,96.739998,97.580002,95.919998,97.040001,28299500
21-07-2015,98.949997,99.239998,97.139999,98.389999,39453300
20-07-2015,95.849998,98.599998,95.360001,97.910004,54860500
17-07-2015,92.550003,95.389999,92.540001,94.970001,54001600
16-07-2015,90.279999,90.860001,89.769997,90.849998,21804100
15-07-2015,90,90.989998,89.419998,89.760002,30886600
14-07-2015,90.459999,90.800003,89.650002,89.68,26627800
13-07-2015,88.660004,90.220001,88.419998,90.099998,29976700
10-07-2015,87.349998,88.220001,86.769997,87.949997,23245900
09-07-2015,86.730003,87.599998,85.650002,85.879997,23144200
08-07-2015,86.290001,86.75,85.449997,85.650002,24399300
07-07-2015,87.800003,87.849998,85.230003,87.220001,33059900
06-07-2015,86.489998,88.190002,86.389999,87.550003,24635900
02-07-2015,87.400002,87.440002,86.339996,87.290001,16908800
01-07-2015,86.769997,87.949997,86.489998,86.910004,25260000
30-06-2015,86.599998,86.699997,85.57,85.769997,23016500
29-06-2015,86.610001,87.5,85.730003,85.800003,35957900
26-06-2015,88.120003,88.339996,86.830002,88.010002,38214600
25-06-2015,89.260002,89.400002,87.839996,87.980003,27302000
24-06-2015,87.660004,89.25,87.449997,88.860001,41370200
23-06-2015,84.959999,87.970001,84.760002,87.879997,50667900
22-06-2015,83.410004,84.970001,83.309998,84.739998,29383100
19-06-2015,82.830002,82.980003,82.120003,82.510002,23353200
18-06-2015,81.639999,83.190002,81.57,82.910004,26782600
17-06-2015,81.760002,82.220001,81.339996,81.790001,18350300
16-06-2015,80.82,81.510002,80.449997,81.059998,13693700
15-06-2015,80.550003,80.93,80.07,80.709999,18805100
12-06-2015,81.370003,82.089996,81.199997,81.529999,11417900
11-06-2015,82.309998,82.900002,81.360001,81.830002,18656800
10-06-2015,80.830002,82.599998,80.809998,82.160004,21531200
09-06-2015,80.599998,81.190002,79.32,80.669998,16497500
08-06-2015,81.82,82,80.129997,80.669998,16915500
05-06-2015,81.870003,82.459999,81.510002,82.139999,16143100
04-06-2015,82.139999,82.949997,81.510002,82.050003,20863900
03-06-2015,81.349998,82.529999,81.25,82.440002,31594700
02-06-2015,79.760002,81.349998,79.559998,80.440002,18923300
01-06-2015,79.300003,80.379997,78.660004,80.290001,18119000
29-05-2015,79.949997,80.07,78.879997,79.190002,16134600
28-05-2015,80.25,81.07,80,80.150002,11982000
27-05-2015,79.599998,80.660004,79.43,80.550003,14160900
26-05-2015,80.43,80.599998,79.080002,79.330002,16321300
22-05-2015,80.349998,81.309998,80.25,80.540001,19567900
21-05-2015,80.190002,80.919998,80.080002,80.480003,13402700
20-05-2015,80.470001,81.099998,79.459999,80.550003,23056900
19-05-2015,81.25,81.690002,80.550003,80.629997,17955400
18-05-2015,80.330002,81.379997,80.230003,80.879997,21613700
15-05-2015,81.410004,81.519997,80.18,80.419998,27069900
14-05-2015,78.940002,81.849998,78.669998,81.370003,49438000
13-05-2015,77.720001,78.529999,77.650002,78.440002,21512300
12-05-2015,77.870003,77.889999,76.790001,77.459999,21285300
11-05-2015,78.480003,79.029999,77.93,78.010002,18874100
08-05-2015,79.099998,79.230003,78.029999,78.510002,19943600
07-05-2015,78,78.940002,77.559998,78.43,19749400
06-05-2015,77.970001,78.809998,77.050003,78.099998,28663000
05-05-2015,78.550003,78.800003,77.220001,77.559998,22311300
04-05-2015,79.330002,79.690002,78.629997,78.809998,14692000
01-05-2015,79.239998,79.760002,78.110001,78.989998,24136400
30-04-2015,80.010002,80.959999,78.32,78.769997,28999000
29-04-2015,80.010002,81.389999,79.519997,80.470001,26430300
28-04-2015,81.830002,81.900002,80.230003,80.68,23775300
27-04-2015,81.870003,82.93,81.629997,81.910004,25446000
24-04-2015,82.769997,82.940002,81.480003,81.529999,29660400
23-04-2015,84.099998,85.589996,82.410004,82.410004,73728100
22-04-2015,84.32,84.739998,83.650002,84.629997,45548000
21-04-2015,84,84.489998,83.540001,83.620003,27171900
20-04-2015,81.540001,83.150002,81.239998,83.089996,28796800
17-04-2015,81.480003,82.110001,80.370003,80.779999,24215000
16-04-2015,82.470001,83.07,82.150002,82.309998,13769700
15-04-2015,83.550003,83.660004,82.269997,82.709999,22390900
14-04-2015,83.169998,83.690002,82.440002,83.519997,19634200
13-04-2015,81.93,83.940002,81.919998,83.010002,26883100
10-04-2015,82.209999,82.610001,81.910004,82.040001,12529700
09-04-2015,82.5,82.800003,81.709999,82.169998,15927300
08-04-2015,82.629997,83.099998,81.839996,82.279999,18966700
07-04-2015,82.650002,83.419998,82.220001,82.32,17467000
06-04-2015,80.800003,82.809998,80.800003,82.440002,19062900
02-04-2015,82.25,82.559998,81.440002,81.559998,19664100
01-04-2015,82.5,82.720001,80.870003,81.669998,22058200
31-03-2015,82.900002,83.5,82.209999,82.220001,19734300
30-03-2015,83.809998,84.339996,82.410004,83.199997,24527700
27-03-2015,83.379997,83.949997,82.879997,83.300003,18372600
26-03-2015,82.720001,83.769997,82.139999,83.010002,32794800
25-03-2015,85.5,85.519997,82.919998,82.919998,37436100
24-03-2015,84.709999,86.07,84.519997,85.309998,32576500
23-03-2015,83.919998,84.959999,83.300003,84.43,27357300
20-03-2015,83.389999,84.599998,83.07,83.800003,44466300
19-03-2015,81.120003,83,81,82.75,42099500
18-03-2015,79.25,81.239998,79.169998,80.910004,36912400
17-03-2015,78.360001,79.779999,78.339996,79.360001,22170000
16-03-2015,77.959999,78.120003,77.360001,78.07,19305400
13-03-2015,78.599998,79.379997,77.68,78.050003,18557300
12-03-2015,78.099998,79.050003,77.910004,78.93,16093300
11-03-2015,77.800003,78.43,77.260002,77.57,20215700
10-03-2015,78.5,79.260002,77.550003,77.550003,23067100
09-03-2015,79.68,79.910004,78.629997,79.440002,18925100
06-03-2015,80.900002,81.330002,79.830002,80.010002,24488600
05-03-2015,81.230003,81.989998,81.050003,81.209999,27825700
04-03-2015,79.300003,81.150002,78.849998,80.900002,28126700
03-03-2015,79.610001,79.699997,78.519997,79.599998,18635000
02-03-2015,79,79.860001,78.519997,79.75,21662500
27-02-2015,80.68,81.230003,78.620003,78.970001,30739200
26-02-2015,79.879997,81.370003,79.720001,80.410004,31111900
25-02-2015,78.5,80.199997,78.5,79.559998,25593800
24-02-2015,78.5,79.480003,78.099998,78.449997,18897100
23-02-2015,79.959999,80.190002,78.379997,78.839996,24139100
20-02-2015,79.550003,80.339996,79.199997,79.900002,36931700
19-02-2015,76.989998,79.839996,76.949997,79.419998,45851200
18-02-2015,75.940002,76.900002,75.449997,76.709999,22426400
17-02-2015,75.300003,76.910004,75.080002,75.599998,25254400
13-02-2015,76.459999,76.480003,75.5,75.739998,18621900
12-02-2015,76.860001,76.870003,75.889999,76.230003,17235000
11-02-2015,75.089996,76.75,75.029999,76.510002,20877400
10-02-2015,74.849998,75.339996,74.5,75.190002,15811300
09-02-2015,74.050003,74.830002,73.449997,74.440002,16194300
06-02-2015,75.68,75.699997,74.25,74.470001,21211000
05-02-2015,75.709999,75.980003,75.209999,75.610001,15062600
04-02-2015,75.089996,76.349998,75.010002,75.629997,20277400
03-02-2015,75.190002,75.580002,73.860001,75.400002,26957700
02-02-2015,76.110001,76.139999,73.75,74.989998,41955300
30-01-2015,78,78.160004,75.75,75.910004,42649500
29-01-2015,76.849998,78.019997,74.209999,78,61293500
28-01-2015,76.900002,77.639999,76,76.239998,53306400
27-01-2015,76.709999,76.879997,75.629997,75.779999,20110000
26-01-2015,77.980003,78.470001,77.290001,77.5,19260800
23-01-2015,77.650002,78.190002,77.040001,77.830002,16746500
22-01-2015,77.169998,77.75,76.68,77.650002,19519500
21-01-2015,76.160004,77.300003,75.849998,76.739998,25096700
20-01-2015,75.720001,76.309998,74.82,76.239998,22821600
16-01-2015,74.040001,75.32,73.839996,75.18,21791500
15-01-2015,76.400002,76.57,73.540001,74.050003,34134000
14-01-2015,76.419998,77.199997,76.029999,76.279999,25741000
13-01-2015,77.230003,78.080002,75.849998,76.449997,25179600
12-01-2015,77.839996,78,76.209999,76.720001,19190200
09-01-2015,78.199997,78.620003,77.199997,77.739998,21157000
08-01-2015,76.739998,78.230003,76.080002,78.18,23961000
07-01-2015,76.760002,77.360001,75.82,76.150002,22045300
06-01-2015,77.230003,77.589996,75.360001,76.150002,27399300
05-01-2015,77.980003,79.25,76.860001,77.190002,26452200
02-01-2015,78.580002,78.93,77.699997,78.449997,18177500
31-12-2014,79.540001,79.800003,77.860001,78.019997,19935400
30-12-2014,79.849998,80.589996,79.099998,79.220001,14370800
29-12-2014,80.489998,80.959999,79.709999,80.019997,14134700
26-12-2014,81.019997,81.279999,80.510002,80.779999,10647400
24-12-2014,81.029999,81.43,80.75,80.769997,7685500
23-12-2014,82.019997,82.169998,80.400002,80.610001,19865800
22-12-2014,80.080002,81.889999,80,81.449997,31395800
19-12-2014,78.75,80,78.330002,79.879997,43335000
18-12-2014,76.889999,78.400002,76.510002,78.400002,34222100
17-12-2014,75.010002,76.410004,74.900002,76.110001,29203900
16-12-2014,76.190002,77.389999,74.589996,74.690002,31554600
15-12-2014,78.459999,78.580002,76.559998,76.989998,29396500
12-12-2014,77.160004,78.879997,77.019997,77.830002,28091600
11-12-2014,76.519997,78.519997,76.480003,77.730003,33462100
10-12-2014,76.650002,77.550003,76.07,76.18,32210500
09-12-2014,75.199997,76.93,74.779999,76.839996,25358600
08-12-2014,76.18,77.25,75.400002,76.519997,25733900
05-12-2014,75.800003,76.760002,75.360001,76.360001,24306400
04-12-2014,74.830002,75.550003,74.660004,75.239998,14362800
03-12-2014,75.379997,75.730003,74.400002,74.879997,16689900
02-12-2014,75.330002,75.910004,75.040001,75.459999,16773900
01-12-2014,77.260002,77.309998,74.800003,75.099998,31789900
28-11-2014,77.669998,78.269997,77.230003,77.699997,15992000
26-11-2014,75.529999,77.779999,75.510002,77.620003,32695300
25-11-2014,74.209999,75.739998,74.129997,75.629997,32250200
24-11-2014,73.540001,74.349998,73.349998,74.010002,22103800
21-11-2014,74.5,74.5,73.5,73.75,23060400
20-11-2014,72.800003,73.989998,72.510002,73.599998,19154900
19-11-2014,74.010002,74.540001,73.110001,73.330002,25441200
18-11-2014,74.449997,74.800003,73.900002,74.339996,20690500
17-11-2014,74.879997,75.660004,73.879997,74.239998,28701200
14-11-2014,74.269997,74.93,74.040001,74.879997,19476900
13-11-2014,74.739998,75.239998,73.639999,74.25,26448500
12-11-2014,74.279999,75.139999,73.540001,74.720001,26536600
11-11-2014,74.949997,74.980003,74.029999,74.610001,18715700
10-11-2014,75.360001,75.480003,74.610001,75,21575100
07-11-2014,75.389999,75.860001,75.019997,75.599998,20774000
06-11-2014,74.889999,75.599998,74.309998,75.260002,21383000
05-11-2014,76.510002,76.800003,74.419998,74.830002,35913000
04-11-2014,74.230003,75.769997,73.650002,75.760002,39326000
03-11-2014,75.470001,75.519997,73.699997,73.879997,40727000
31-10-2014,74.93,75.699997,74.449997,74.989998,44544000
30-10-2014,75.050003,75.349998,72.900002,74.110001,83270000
29-10-2014,75.449997,76.879997,74.779999,75.860001,106120000
28-10-2014,80.18,81.160004,79.57,80.769997,74212000
27-10-2014,80.739998,80.800003,79.760002,80.279999,30169000
24-10-2014,80.199997,80.82,79.32,80.669998,32248000
23-10-2014,79.379997,80.629997,79.010002,80.040001,35056000
22-10-2014,78.82,79.849998,78.010002,78.370003,41862000
21-10-2014,77.559998,78.739998,77.150002,78.690002,32252000
20-10-2014,75.599998,77.089996,75.379997,76.949997,34701000
17-10-2014,74.230003,76,73.75,75.949997,76342000
16-10-2014,70.790001,73.349998,70.580002,72.629997,53529000
15-10-2014,71.690002,73.800003,70.32,73.209999,61528000
14-10-2014,74,74.18,72.050003,73.589996,50299000
13-10-2014,73.230003,74.779999,72.519997,72.989998,43938000
10-10-2014,75.589996,76.5,72.760002,72.910004,52146000
09-10-2014,77.279999,77.760002,75.849998,75.910004,32487000
08-10-2014,76.18,77.709999,75.099998,77.519997,32976000
07-10-2014,77.050003,77.949997,76.239998,76.290001,25317000
06-10-2014,77.190002,77.889999,76.849998,77.559998,25729000
03-10-2014,77.760002,78.059998,77.260002,77.440002,23340000
02-10-2014,76.57,77.480003,75.639999,77.080002,36488000
01-10-2014,78.779999,78.82,75.900002,76.550003,55090000
30-09-2014,79.349998,79.709999,78.599998,79.040001,35899000
29-09-2014,78.120003,79.199997,77.910004,79,34031000
26-09-2014,77.589996,78.839996,77.330002,78.790001,28872000
25-09-2014,78.599998,78.940002,77.129997,77.220001,37533000
24-09-2014,78.099998,78.620003,77.510002,78.540001,30680000
23-09-2014,76.330002,78.629997,76.040001,78.290001,36814000
22-09-2014,77,77.529999,75.949997,76.800003,31961000
19-09-2014,77.400002,78.300003,76.440002,77.910004,76671000
18-09-2014,76.769997,77.330002,76.519997,77,23031000
17-09-2014,75.959999,77.25,75.57,76.43,28693000
16-09-2014,73.519997,76.230003,73.07,76.080002,37742000
15-09-2014,77.150002,77.25,73.43,74.580002,49679000
12-09-2014,78.019997,78.300003,77.099998,77.480003,26676800
11-09-2014,77.129997,78.360001,77.050003,77.919998,32219000
10-09-2014,76.519997,77.949997,76.510002,77.43,29909000
09-09-2014,77.589996,78.169998,76.199997,76.669998,28882000
08-09-2014,77.260002,78.169998,77.010002,77.889999,28183000
05-09-2014,76.099998,77.379997,75.599998,77.260002,29476000
04-09-2014,75.889999,76.93,75.529999,75.949997,26676000
03-09-2014,77.139999,77.480003,75.599998,75.830002,32389000
02-09-2014,75.010002,76.699997,74.82,76.68,34979000
29-08-2014,74.300003,74.82,74.010002,74.82,26241000
28-08-2014,74,74.43,73.730003,73.860001,21947000
27-08-2014,75.269997,75.489998,74.459999,74.629997,36323000
26-08-2014,75,75.989998,74.730003,75.959999,23993000
25-08-2014,74.940002,75.279999,74.790001,75.019997,19734000
22-08-2014,74.339996,74.730003,73.57,74.57,20897000
21-08-2014,74.919998,75.190002,74.410004,74.57,20102000
20-08-2014,74.970001,75.18,74.620003,74.809998,22917000
19-08-2014,74.809998,75.580002,74.510002,75.290001,26679000
18-08-2014,74,74.720001,73.959999,74.589996,23974000
15-08-2014,74.32,74.650002,73,73.629997,38846600
14-08-2014,73.970001,74.379997,73.690002,74.300003,22207000
13-08-2014,73.120003,74.25,73.050003,73.769997,29266000
12-08-2014,73.089996,73.330002,72.220001,72.830002,27419000
11-08-2014,73.459999,73.910004,73.059998,73.440002,24591000
08-08-2014,73.400002,73.43,72.559998,73.059998,27202000
07-08-2014,73,74,72.699997,73.169998,38141000
06-08-2014,72.019997,73.720001,71.790001,72.470001,30986000
05-08-2014,73.199997,73.589996,72.18,72.690002,34986000
04-08-2014,72.360001,73.879997,72.360001,73.510002,30777000
01-08-2014,72.220001,73.220001,71.550003,72.360001,43535000
31-07-2014,74,74.169998,72.440002,72.650002,43992000
30-07-2014,74.209999,75.190002,74.129997,74.68,36853000
29-07-2014,74.720001,74.919998,73.419998,73.709999,41324000
28-07-2014,75.169998,75.5,73.849998,74.919998,41725000
25-07-2014,74.989998,75.669998,74.660004,75.190002,45917000
24-07-2014,75.959999,76.739998,74.510002,74.980003,124168000
23-07-2014,69.739998,71.330002,69.610001,71.290001,78435000
22-07-2014,69.760002,69.769997,68.610001,69.269997,40398000
21-07-2014,68.809998,69.959999,68.5,69.400002,49539000
18-07-2014,66.800003,68.459999,66.160004,68.419998,42456000
17-07-2014,67.029999,67.849998,66.040001,66.410004,38188000
16-07-2014,67.540001,67.940002,67.07,67.660004,29541600
15-07-2014,67.959999,68.089996,66.260002,67.169998,44213200
14-07-2014,67.129997,68.169998,66.900002,67.900002,38537000
11-07-2014,65.279999,66.589996,64.790001,66.339996,39212000
10-07-2014,63.310001,65.339996,63.049999,64.870003,44422000
09-07-2014,63.41,65.120003,63.150002,64.970001,51432000
08-07-2014,65.059998,65.559998,62.209999,62.759998,68926000
07-07-2014,66.300003,66.57,65.120003,65.290001,28745000
03-07-2014,66.860001,67,65.760002,66.290001,25203200
02-07-2014,68.040001,68.300003,65.790001,66.449997,41895000
01-07-2014,67.580002,68.440002,67.389999,68.059998,33243000
30-06-2014,67.459999,67.919998,67.129997,67.290001,27102800
27-06-2014,67.309998,67.699997,66.839996,67.599998,46461000
26-06-2014,68,68,66.900002,67.129997,47714000
25-06-2014,65.580002,67.480003,65.57,67.440002,44308000
24-06-2014,65.360001,67.169998,65.269997,65.720001,57335000
23-06-2014,64.32,65.660004,64.220001,65.370003,34560000
20-06-2014,64.459999,64.809998,63.349998,64.5,46466000
19-06-2014,65.459999,65.580002,64.209999,64.339996,34245000
18-06-2014,64.489998,65.75,64.050003,65.599998,35570000
17-06-2014,64.099998,64.879997,63.93,64.400002,27715000
16-06-2014,64.160004,64.879997,63.75,64.190002,31046000
13-06-2014,64.699997,64.970001,63.830002,64.5,29419000
12-06-2014,65.849998,66.470001,64.059998,64.290001,55730000
11-06-2014,65.32,65.800003,64.900002,65.779999,44242000
10-06-2014,63.529999,65.82,63.5,65.769997,69338000
09-06-2014,62.400002,63.34,61.790001,62.880001,37617000
06-06-2014,63.369999,63.48,62.150002,62.5,42442000
05-06-2014,63.66,64.360001,62.82,63.189999,47352000
04-06-2014,62.450001,63.59,62.07,63.34,36514000
03-06-2014,62.619999,63.419998,62.32,62.869999,32217000
02-06-2014,63.23,63.59,62.049999,63.080002,35996000
30-05-2014,63.950001,64.169998,62.560001,63.299999,45253500
29-05-2014,63.84,64.300003,63.509998,63.830002,42700000
28-05-2014,63.389999,64.139999,62.619999,63.509998,47795000
27-05-2014,61.619999,63.509998,61.57,63.48,55682000
23-05-2014,60.41,61.450001,60.150002,61.349998,38294000
22-05-2014,60.939999,61.48,60.400002,60.52,54200000
21-05-2014,58.560001,60.5,58.25,60.490002,58992000
20-05-2014,59.5,60.189999,58.18,58.560001,53931000
19-05-2014,57.889999,59.560001,57.57,59.209999,43034000
16-05-2014,58.310001,58.450001,57.310001,58.02,47933000
15-05-2014,59.259998,59.380001,57.52,57.919998,56814000
14-05-2014,59.529999,60.450001,58.950001,59.23,47429000
13-05-2014,59.66,60.889999,59.509998,59.830002,48525000
12-05-2014,57.98,59.900002,57.98,59.830002,48575000
09-05-2014,56.849998,57.650002,56.380001,57.240002,52584000
08-05-2014,57.23,58.82,56.5,56.759998,61251000
07-05-2014,58.77,59.299999,56.259998,57.389999,78587000
06-05-2014,60.98,61.150002,58.490002,58.529999,55901000
05-05-2014,59.669998,61.349998,59.18,61.220001,46057000
02-05-2014,61.299999,61.889999,60.18,60.459999,54189000
01-05-2014,60.43,62.279999,60.209999,61.150002,82429000
30-04-2014,57.580002,59.849998,57.16,59.779999,76093000
29-04-2014,56.09,58.279999,55.84,58.150002,75557000
28-04-2014,58.049999,58.310001,54.66,56.139999,107758000
25-04-2014,59.970001,60.009998,57.57,57.709999,92502000
24-04-2014,63.599998,63.650002,59.77,60.869999,138769000
23-04-2014,63.450001,63.48,61.259998,61.360001,95908700
22-04-2014,62.650002,63.439999,62.220001,63.029999,60631000
21-04-2014,59.459999,61.240002,59.150002,61.240002,60364000
17-04-2014,59.299999,60.580002,58.720001,58.939999,88040000
16-04-2014,59.790001,60.189999,57.740002,59.720001,78774000
15-04-2014,59.290001,59.68,55.880001,59.09,108623000
14-04-2014,60.09,60.450001,57.779999,58.889999,72325000
11-04-2014,57.599998,60.310001,57.310001,58.529999,91452000
10-04-2014,63.080002,63.18,58.68,59.16,114988000
09-04-2014,59.630001,62.459999,59.189999,62.41,100215000
08-04-2014,57.68,58.709999,57.169998,58.189999,78836000
07-04-2014,55.900002,58,55.439999,56.950001,108488000
04-04-2014,59.939999,60.200001,56.32,56.75,125214400
03-04-2014,62.549999,63.169998,59.130001,59.490002,83859000
02-04-2014,63.209999,63.91,62.209999,62.720001,66277000
01-04-2014,60.459999,62.66,60.240002,62.619999,59291000
31-03-2014,60.779999,61.52,59.869999,60.240002,53011000
28-03-2014,61.34,61.950001,59.34,60.009998,67052000
27-03-2014,60.509998,61.900002,57.98,60.970001,112650000
26-03-2014,64.739998,64.949997,60.369999,60.389999,97503900
25-03-2014,64.889999,66.190002,63.779999,64.889999,68786000
24-03-2014,67.190002,67.360001,63.360001,64.099998,85696000
21-03-2014,67.529999,67.919998,66.18,67.239998,59999900
20-03-2014,68.010002,68.230003,66.82,66.970001,44439000
19-03-2014,69.169998,69.290001,67.470001,68.239998,43981000
18-03-2014,68.760002,69.599998,68.300003,69.190002,40827000
17-03-2014,68.18,68.949997,66.620003,68.739998,52197000
14-03-2014,68.489998,69.43,67.459999,67.720001,48227000
13-03-2014,71.290001,71.349998,68.150002,68.830002,57091000
